lab_1/button.vcd
$version Generated by VerilatedVcd $end
$timescale 1ps $end
 $scope module TOP $end
  $var wire 1 # clk $end
  $var wire 1 $ raw_pressed $end
  $var wire 1 % held $end
  $var wire 1 & click $end
  $scope module Button $end
   $var wire 32 ) HALF_SEC [31:0] $end
   $var wire 1 # clk $end
   $var wire 1 $ raw_pressed $end
   $var wire 1 % held $end
   $var wire 1 & click $end
   $var wire 25 ' clk_cnt [24:0] $end
   $var wire 2 ( state [1:0] $end
  $upscope $end
 $upscope $end
$enddefinitions $end


#0
0#
0$
0%
0&
b0000000000000000000000000 '
b00 (
b00000000000000000000000000001010 )
#10
1#
b0000000000000000000000001 '
#20
0#
#30
1#
b0000000000000000000000010 '
#40
0#
#50
1#
b0000000000000000000000011 '
#60
0#
1$
#70
1#
b0000000000000000000000100 '
b01 (
#80
0#
#90
1#
1%
1&
b0000000000000000000000000 '
b10 (
#100
0#
#110
1#
0%
0&
b0000000000000000000000001 '
#120
0#
0$
#130
1#
b0000000000000000000000010 '
#140
0#
#150
1#
b0000000000000000000000011 '
#160
0#
#170
1#
b0000000000000000000000100 '
#180
0#
#190
1#
b0000000000000000000000101 '
#200
0#
#210
1#
b0000000000000000000000110 '
#220
0#
#230
1#
b0000000000000000000000111 '
#240
0#
#250
1#
b0000000000000000000001000 '
#260
0#
#270
1#
b0000000000000000000001001 '
#280
0#
#290
1#
b0000000000000000000001010 '
#300
0#
#310
1#
b0000000000000000000001011 '
b00 (
#320
0#
#330
1#
b0000000000000000000001100 '
#340
0#
#350
1#
b0000000000000000000001101 '
#360
0#
#370
1#
b0000000000000000000001110 '
#380
0#
#390
1#
b0000000000000000000001111 '
#400
0#
#410
1#
b0000000000000000000010000 '
#420
0#
1$
#430
1#
b0000000000000000000010001 '
b01 (
#440
0#
#450
1#
1%
1&
b0000000000000000000000000 '
b10 (
#460
0#
#470
1#
0%
0&
b0000000000000000000000001 '
#480
0#
#490
1#
b0000000000000000000000010 '
#500
0#
#510
1#
b0000000000000000000000011 '
#520
0#
#530
1#
b0000000000000000000000100 '
#540
0#
#550
1#
b0000000000000000000000101 '
#560
0#
#570
1#
b0000000000000000000000110 '
#580
0#
#590
1#
b0000000000000000000000111 '
#600
0#
#610
1#
b0000000000000000000001000 '
#620
0#
#630
1#
b0000000000000000000001001 '
#640
0#
#650
1#
b0000000000000000000001010 '
#660
0#
#670
1#
b0000000000000000000001011 '
b11 (
#680
0#
#690
1#
1%
b0000000000000000000001100 '
#700
0#
#710
1#
b0000000000000000000001101 '
#720
0#
#730
1#
b0000000000000000000001110 '
#740
0#
#750
1#
b0000000000000000000001111 '
#760
0#
#770
1#
b0000000000000000000010000 '
#780
0#
#790
1#
b0000000000000000000010001 '
#800
0#
#810
1#
b0000000000000000000010010 '
#820
0#
0$
#830
1#
b0000000000000000000010011 '
b00 (
#840
0#
#850
1#
0%
b0000000000000000000010100 '
#860
0#
#870
1#
b0000000000000000000010101 '
#880
0#
#890
1#
b0000000000000000000010110 '
#900
0#
#910
1#
b0000000000000000000010111 '
#920
0#
1$
#930
1#
b0000000000000000000011000 '
b01 (
#940
0#
0$
#950
1#
1%
1&
b0000000000000000000000000 '
b10 (
#960
0#
#970
1#
0%
0&
b0000000000000000000000001 '
#980
0#
#990
1#
b0000000000000000000000010 '
#1000
0#
#1010
1#
b0000000000000000000000011 '
#1020
0#
#1030
1#
b0000000000000000000000100 '
#1040
0#
#1050
1#
b0000000000000000000000101 '
#1060
0#
#1070
1#
b0000000000000000000000110 '
#1080
0#
#1090
1#
b0000000000000000000000111 '
#1100
0#
#1110
1#
b0000000000000000000001000 '
#1120
0#
#1130
1#
b0000000000000000000001001 '
